csr_stream_bridge.vcd
$scope module CSRToStreamBridge $end
$var wire 1 ! stream_in_valid $end
$var wire 1 " stream_in_ready $end
$var wire 64 # stream_in_payload_data $end
$var wire 64 $ data_csr_in_storage $end
$var wire 1 % ready_csr_out_status $end
$var wire 1 & valid_csr_in_storage $end
$var wire 1 ' completed_status_status $end
$var wire 1 ( re $end
$var wire 1 ) completed_internal $end
$var wire 1 * sys_clk $end
$var wire 1 + sys_rst $end
$var wire 200 , state $end
$var wire 216 - next_state $end
$var wire 1 . completed_internal_next_value $end
$var wire 1 / completed_internal_next_value_ce $end
$enddefinitions $end
$dumpvars
$end
#0
0!
0"
b0000000000000000000000000000000000000000000000000000000000000000 #
b0000000000000000000000000000000000000000000000000000000000000000 $
0%
0&
0'
0(
0)
0*
0+
b01001001010001000100110001000101 ,
b001100000011101001001001010001000100110001000101 -
0.
0/
#5
1*
1+
#10
0*
#15
1*
#20
0*
#25
1*
0+
#30
0*
#35
1*
1"
b00110011001110100100100001000001010011100100010001010011010010000100000101001011010001010101111101000100010011110100111001000101 -
1&
b0001000100100010001100110100010001010101011001100111011110001000 $
#40
0*
#45
1!
0"
b0001000100100010001100110100010001010101011001100111011110001000 #
1.
1*
1/
1%
b0100100001000001010011100100010001010011010010000100000101001011010001010101111101000100010011110100111001000101 ,
b001100000011101001001001010001000100110001000101 -
0&
#50
0*
#55
0!
1)
b0000000000000000000000000000000000000000000000000000000000000000 #
0.
1*
0/
0%
b01001001010001000100110001000101 ,
1'
#60
0*
#65
1*
#70
0*
#75
1*
1(
#80
0*
#85
1*
0'
0(
0)
#90
0*
#95
1*
#100
0*
#105
1*
b0000000000000000000000001000100000010001001000100011001101000100 $
b001100010011101001001000010000010100111001000100010100110100100001000001010010110100010101011111010101100100000101001100010010010100010001011111010010010100111001001001010101000100100101000001010101000100010101000100 -
1&
#110
0*
#115
1*
1!
b01001000010000010100111001000100010100110100100001000001010010110100010101011111010101100100000101001100010010010100010001011111010010010100111001001001010101000100100101000001010101000100010101000100 ,
b0000000000000000000000001000100000010001001000100011001101000100 #
#120
0*
#125
1*
#130
0*
#135
1*
#140
0*
#145
1*
1"
b00110011001110100100100001000001010011100100010001010011010010000100000101001011010001010101111101000100010011110100111001000101 -
#150
0*
#155
1*
1%
0"
1/
b0100100001000001010011100100010001010011010010000100000101001011010001010101111101000100010011110100111001000101 ,
b001100000011101001001001010001000100110001000101 -
1.
#160
0*
#165
0!
1)
b0000000000000000000000000000000000000000000000000000000000000000 #
0.
1*
0/
0%
b01001001010001000100110001000101 ,
0&
1'
#170
0*
#175
1*
#180
0*
#185
1*
1(
#190
0*
#195
1*
0'
0(
0)
#200
0*
#205
1*
#210
0*
#215
1*
0!
0"
b0000000000000000000000000000000000000000000000000000000000000000 #
b0000000000000000000000000000000000000000000000000000000000000000 $
0%
0&
0'
0(
0)
0*
0+
b01001001010001000100110001000101 ,
b001100000011101001001001010001000100110001000101 -
0.
0/
